EESchema Schematic File Version 4
EELAYER 30 0
EELAYER END
$Descr A4 11693 8268
encoding utf-8
Sheet 1 1
Title ""
Date ""
Rev ""
Comp ""
Comment1 ""
Comment2 ""
Comment3 ""
Comment4 ""
$EndDescr
$Comp
L Device:R_Small_US R1
U 1 1 60B4241D
P 4450 3600
F 0 "R1" V 4245 3600 50  0000 C CNN
F 1 "1k" V 4336 3600 50  0000 C CNN
F 2 "" H 4450 3600 50  0001 C CNN
F 3 "~" H 4450 3600 50  0001 C CNN
	1    4450 3600
	0    1    1    0   
$EndComp
$Comp
L Device:R_Small_US R2
U 1 1 60B43584
P 5050 3150
F 0 "R2" H 5118 3196 50  0000 L CNN
F 1 "100" H 5118 3105 50  0000 L CNN
F 2 "" H 5050 3150 50  0001 C CNN
F 3 "~" H 5050 3150 50  0001 C CNN
	1    5050 3150
	1    0    0    -1  
$EndComp
$Comp
L Device:R_Small_US R3
U 1 1 60B44520
P 5300 3600
F 0 "R3" V 5200 3600 50  0000 C CNN
F 1 "100k" V 5150 3600 50  0000 C CNN
F 2 "" H 5300 3600 50  0001 C CNN
F 3 "~" H 5300 3600 50  0001 C CNN
	1    5300 3600
	0    -1   -1   0   
$EndComp
$Comp
L power:GND #PWR?
U 1 1 60B4AF15
P 5600 4250
F 0 "#PWR?" H 5600 4000 50  0001 C CNN
F 1 "GND" H 5605 4077 50  0000 C CNN
F 2 "" H 5600 4250 50  0001 C CNN
F 3 "" H 5600 4250 50  0001 C CNN
	1    5600 4250
	1    0    0    -1  
$EndComp
$Comp
L Device:R_Small_US R5
U 1 1 60B4EA6F
P 6450 3100
F 0 "R5" V 6350 3100 50  0000 C CNN
F 1 "10k" V 6550 3100 50  0000 C CNN
F 2 "" H 6450 3100 50  0001 C CNN
F 3 "~" H 6450 3100 50  0001 C CNN
	1    6450 3100
	0    1    1    0   
$EndComp
$Comp
L Simulation_SPICE:OPAMP U1
U 1 1 60B4FE92
P 6450 3500
F 0 "U1" H 6794 3546 50  0000 L CNN
F 1 "OPAMP" H 6794 3455 50  0000 L CNN
F 2 "" H 6450 3500 50  0001 C CNN
F 3 "~" H 6450 3500 50  0001 C CNN
F 4 "Y" H 6450 3500 50  0001 L CNN "Spice_Netlist_Enabled"
F 5 "X" H 6450 3500 50  0001 L CNN "Spice_Primitive"
	1    6450 3500
	1    0    0    -1  
$EndComp
Wire Wire Line
	4550 3600 5050 3600
Wire Wire Line
	5050 3250 5050 3600
Connection ~ 5050 3600
Wire Wire Line
	5050 3600 5200 3600
Wire Wire Line
	5950 3100 6350 3100
Wire Wire Line
	6550 3100 6950 3100
Wire Wire Line
	6950 3100 6950 3500
Wire Wire Line
	6950 3500 6750 3500
$Comp
L power:-3V3 #PWR?
U 1 1 60B59E29
P 6350 4250
F 0 "#PWR?" H 6350 4350 50  0001 C CNN
F 1 "-3V3" H 6365 4423 50  0000 C CNN
F 2 "" H 6350 4250 50  0001 C CNN
F 3 "" H 6350 4250 50  0001 C CNN
	1    6350 4250
	-1   0    0    1   
$EndComp
Wire Wire Line
	6350 3800 6350 4250
Wire Wire Line
	6950 3500 7400 3500
Connection ~ 6950 3500
$Comp
L Device:R_Small_US R4
U 1 1 60B5F491
P 5950 3800
F 0 "R4" V 6050 3750 50  0000 L CNN
F 1 "1.5k" V 6100 3700 50  0000 L CNN
F 2 "" H 5950 3800 50  0001 C CNN
F 3 "~" H 5950 3800 50  0001 C CNN
	1    5950 3800
	1    0    0    -1  
$EndComp
$Comp
L power:GND #PWR?
U 1 1 60B60D10
P 5950 4250
F 0 "#PWR?" H 5950 4000 50  0001 C CNN
F 1 "GND" H 5955 4077 50  0000 C CNN
F 2 "" H 5950 4250 50  0001 C CNN
F 3 "" H 5950 4250 50  0001 C CNN
	1    5950 4250
	1    0    0    -1  
$EndComp
Wire Wire Line
	5950 3100 5950 3400
Wire Wire Line
	5950 3900 5950 4250
Wire Wire Line
	5050 3050 5050 2900
Wire Wire Line
	4350 3600 3950 3600
$Comp
L power:AC #PWR?
U 1 1 60D089D9
P 5050 2900
F 0 "#PWR?" H 5050 2800 50  0001 C CNN
F 1 "AC" H 5050 3175 50  0000 C CNN
F 2 "" H 5050 2900 50  0001 C CNN
F 3 "" H 5050 2900 50  0001 C CNN
	1    5050 2900
	1    0    0    -1  
$EndComp
$Comp
L power:AC #PWR?
U 1 1 60D095A9
P 3950 3600
F 0 "#PWR?" H 3950 3500 50  0001 C CNN
F 1 "AC" H 3950 3875 50  0000 C CNN
F 2 "" H 3950 3600 50  0001 C CNN
F 3 "" H 3950 3600 50  0001 C CNN
	1    3950 3600
	1    0    0    -1  
$EndComp
Text GLabel 7400 3500 2    50   Input ~ 0
Vout
$Comp
L power:+3.3V #PWR?
U 1 1 60B58B9B
P 6350 2750
F 0 "#PWR?" H 6350 2600 50  0001 C CNN
F 1 "+3.3V" H 6365 2923 50  0000 C CNN
F 2 "" H 6350 2750 50  0001 C CNN
F 3 "" H 6350 2750 50  0001 C CNN
	1    6350 2750
	1    0    0    -1  
$EndComp
Wire Wire Line
	6350 2750 6350 3200
Wire Wire Line
	5600 4100 5600 4250
$Comp
L Device:C_Small C1
U 1 1 60B4A14E
P 5600 4000
F 0 "C1" H 5692 4046 50  0000 L CNN
F 1 "100nF" H 5692 3955 50  0000 L CNN
F 2 "" H 5600 4000 50  0001 C CNN
F 3 "~" H 5600 4000 50  0001 C CNN
	1    5600 4000
	1    0    0    -1  
$EndComp
Wire Wire Line
	5400 3600 5600 3600
Wire Wire Line
	5600 3900 5600 3600
Connection ~ 5600 3600
Wire Wire Line
	5600 3600 6150 3600
Wire Wire Line
	6150 3400 5950 3400
Connection ~ 5950 3400
Wire Wire Line
	5950 3400 5950 3700
Text Notes 8700 6900 0    50   ~ 0
Amplifier Circuit
$EndSCHEMATC
