EESchema Schematic File Version 4
EELAYER 30 0
EELAYER END
$Descr A4 11693 8268
encoding utf-8
Sheet 1 1
Title ""
Date ""
Rev ""
Comp ""
Comment1 ""
Comment2 ""
Comment3 ""
Comment4 ""
$EndDescr
$Comp
L Device:Battery VSupply
U 1 1 60B3325A
P 5150 3850
F 0 "VSupply" H 5258 3896 50  0000 L CNN
F 1 "12V" H 5258 3805 50  0000 L CNN
F 2 "" V 5150 3910 50  0001 C CNN
F 3 "~" V 5150 3910 50  0001 C CNN
	1    5150 3850
	1    0    0    -1  
$EndComp
$Comp
L Device:R_Small_US R1
U 1 1 60B3465D
P 5650 3750
F 0 "R1" V 5445 3750 50  0000 C CNN
F 1 "150" V 5536 3750 50  0000 C CNN
F 2 "" H 5650 3750 50  0001 C CNN
F 3 "~" H 5650 3750 50  0001 C CNN
	1    5650 3750
	0    1    1    0   
$EndComp
$Comp
L Device:D_Zener ZD1
U 1 1 60B36370
P 5950 4000
F 0 "ZD1" V 5904 4080 50  0000 L CNN
F 1 "5V" V 5995 4080 50  0000 L CNN
F 2 "" H 5950 4000 50  0001 C CNN
F 3 "~" H 5950 4000 50  0001 C CNN
	1    5950 4000
	0    1    1    0   
$EndComp
$Comp
L Device:CP1_Small C1
U 1 1 60B375CB
P 6400 3750
F 0 "C1" H 6491 3796 50  0000 L CNN
F 1 "100microF" V 6300 3550 50  0000 L CNN
F 2 "" H 6400 3750 50  0001 C CNN
F 3 "~" H 6400 3750 50  0001 C CNN
	1    6400 3750
	1    0    0    -1  
$EndComp
$Comp
L Transistor_BJT:BC548 Q1
U 1 1 60B388BB
P 5950 3450
F 0 "Q1" V 6278 3450 50  0000 C CNN
F 1 "BC548" V 6187 3450 50  0000 C CNN
F 2 "Package_TO_SOT_THT:TO-92_Inline" H 6150 3375 50  0001 L CIN
F 3 "https://www.onsemi.com/pub/Collateral/BC550-D.pdf" H 5950 3450 50  0001 L CNN
	1    5950 3450
	0    -1   -1   0   
$EndComp
$Comp
L Device:R_Small_US RLoad
U 1 1 60B3CB20
P 6800 3750
F 0 "RLoad" H 6868 3796 50  0000 L CNN
F 1 "1K" H 6868 3705 50  0000 L CNN
F 2 "" H 6800 3750 50  0001 C CNN
F 3 "~" H 6800 3750 50  0001 C CNN
	1    6800 3750
	1    0    0    -1  
$EndComp
$Comp
L power:GND #PWR?
U 1 1 60B3E7D1
P 5950 4250
F 0 "#PWR?" H 5950 4000 50  0001 C CNN
F 1 "GND" H 5955 4077 50  0000 C CNN
F 2 "" H 5950 4250 50  0001 C CNN
F 3 "" H 5950 4250 50  0001 C CNN
	1    5950 4250
	1    0    0    -1  
$EndComp
Wire Wire Line
	5150 3650 5150 3350
Wire Wire Line
	5150 3350 5400 3350
Wire Wire Line
	5400 3350 5400 3750
Wire Wire Line
	5400 3750 5550 3750
Connection ~ 5400 3350
Wire Wire Line
	5400 3350 5750 3350
Wire Wire Line
	5950 3650 5950 3750
Wire Wire Line
	5750 3750 5950 3750
Connection ~ 5950 3750
Wire Wire Line
	5950 3750 5950 3850
Wire Wire Line
	5150 4050 5150 4250
Wire Wire Line
	5950 4250 5950 4150
Wire Wire Line
	6150 3350 6400 3350
Wire Wire Line
	6400 3350 6400 3650
Wire Wire Line
	5950 4250 6400 4250
Wire Wire Line
	6400 4250 6400 3850
Connection ~ 5950 4250
Wire Wire Line
	6400 3350 6800 3350
Connection ~ 6400 3350
Wire Wire Line
	6400 4250 6800 4250
Connection ~ 6400 4250
Wire Wire Line
	5150 4250 5950 4250
Wire Wire Line
	6800 3850 6800 4250
Wire Wire Line
	6800 3350 6800 3650
Text Notes 8350 6850 0    50   ~ 0
mtmbre002 Power Regulator\n
Wire Wire Line
	6800 3350 6950 3350
Connection ~ 6800 3350
Text GLabel 6950 3350 2    50   Input ~ 0
VOut
$EndSCHEMATC
